epoch 1 loss: 0.5317250937721801, train_accuracy: 89.20863309352518, test_accuracy: 58.743718592964825 
epoch 2 loss: 0.2989745225794738, train_accuracy: 92.0863309352518, test_accuracy: 61.15577889447236 
epoch 3 loss: 0.21879101963246547, train_accuracy: 93.89325748703362, test_accuracy: 62.76381909547739 
epoch 4 loss: 0.17870673122675623, train_accuracy: 95.21499079805923, test_accuracy: 63.266331658291456 
epoch 5 loss: 0.13579119055105193, train_accuracy: 96.67057052032793, test_accuracy: 63.46733668341709 
epoch 6 loss: 0.11253792538080228, train_accuracy: 97.74134181027271, test_accuracy: 63.21608040201005 
epoch 7 loss: 0.07505938220445228, train_accuracy: 97.99230383135352, test_accuracy: 64.17085427135679 
epoch 8 loss: 0.05587209896538812, train_accuracy: 97.99230383135352, test_accuracy: 61.608040201005025 
epoch 9 loss: 0.050628231144039096, train_accuracy: 99.24711393675757, test_accuracy: 61.75879396984924 
epoch 10 loss: 0.028840737580891153, train_accuracy: 99.39769114940606, test_accuracy: 62.41206030150754 
epoch 11 loss: 0.04468182134938573, train_accuracy: 98.66153588756902, test_accuracy: 61.90954773869347 
epoch 12 loss: 0.029253716290845493, train_accuracy: 99.64865317048687, test_accuracy: 63.5678391959799 
epoch 13 loss: 0.027359989942237383, train_accuracy: 99.481345156433, test_accuracy: 62.8643216080402 
epoch 14 loss: 0.030266208335292033, train_accuracy: 98.97942111427137, test_accuracy: 62.462311557788944 
epoch 15 loss: 0.02112248564007068, train_accuracy: 99.38096034800067, test_accuracy: 61.80904522613066 
epoch 16 loss: 0.025509488626839293, train_accuracy: 98.49422787351514, test_accuracy: 62.26130653266332 
epoch 17 loss: 0.027358306325593267, train_accuracy: 99.81596118454074, test_accuracy: 62.562814070351756 
epoch 18 loss: 0.015097545117574086, train_accuracy: 99.69884557470303, test_accuracy: 62.814070351758794 
epoch 19 loss: 0.01399465499147281, train_accuracy: 98.62807428475824, test_accuracy: 62.462311557788944 
epoch 20 loss: 0.019064723008256217, train_accuracy: 99.64865317048687, test_accuracy: 62.562814070351756 
epoch 21 loss: 0.00536980022709037, train_accuracy: 99.94980759578384, test_accuracy: 64.17085427135679 
epoch 22 loss: 0.016772156119867664, train_accuracy: 99.51480675924377, test_accuracy: 61.35678391959799 
epoch 23 loss: 0.01797645814692798, train_accuracy: 99.68211477329764, test_accuracy: 62.71356783919598 
epoch 24 loss: 0.0207768732070345, train_accuracy: 99.24711393675757, test_accuracy: 65.12562814070351 
epoch 25 loss: 0.017590616455203552, train_accuracy: 99.31403714237912, test_accuracy: 63.5678391959799 
epoch 26 loss: 0.00411731284563786, train_accuracy: 99.94980759578384, test_accuracy: 62.914572864321606 
epoch 27 loss: 0.0004624326275381272, train_accuracy: 100.0, test_accuracy: 63.969849246231156 
epoch 28 loss: 9.855349255713806e-05, train_accuracy: 100.0, test_accuracy: 63.91959798994975 
epoch 29 loss: 3.592221943934111e-05, train_accuracy: 100.0, test_accuracy: 63.91959798994975 
epoch 30 loss: 1.3942242878862294e-05, train_accuracy: 100.0, test_accuracy: 63.66834170854271 
