epoch 1 loss: 0.676575664570714, train_accuracy: 59.84615384615385, test_accuracy: 59.64824120603015 
epoch 2 loss: 0.6492450699057596, train_accuracy: 66.08547008547009, test_accuracy: 63.768844221105525 
epoch 3 loss: 0.6253597941821752, train_accuracy: 67.07692307692308, test_accuracy: 62.51256281407035 
epoch 4 loss: 0.6017591430465516, train_accuracy: 66.5982905982906, test_accuracy: 62.663316582914575 
epoch 5 loss: 0.5741382222940491, train_accuracy: 68.58119658119658, test_accuracy: 63.768844221105525 
epoch 6 loss: 0.5507578543632103, train_accuracy: 76.2051282051282, test_accuracy: 69.09547738693468 
epoch 7 loss: 0.5174588908412757, train_accuracy: 77.33333333333333, test_accuracy: 68.14070351758794 
epoch 8 loss: 0.4717816029494126, train_accuracy: 80.56410256410257, test_accuracy: 67.98994974874371 
epoch 9 loss: 0.4305160250578317, train_accuracy: 84.54700854700855, test_accuracy: 67.8894472361809 
epoch 10 loss: 0.3688579948790651, train_accuracy: 88.83760683760684, test_accuracy: 68.44221105527639 
epoch 11 loss: 0.31641567363673917, train_accuracy: 90.23931623931624, test_accuracy: 67.58793969849246 
epoch 12 loss: 0.26036954777944615, train_accuracy: 93.16239316239316, test_accuracy: 66.23115577889448 
epoch 13 loss: 0.21290654209108686, train_accuracy: 93.72649572649573, test_accuracy: 65.77889447236181 
epoch 14 loss: 0.16418099918310552, train_accuracy: 95.07692307692308, test_accuracy: 65.37688442211055 
epoch 15 loss: 0.13302957938519963, train_accuracy: 96.99145299145299, test_accuracy: 65.97989949748744 
epoch 16 loss: 0.10932504609640395, train_accuracy: 97.28205128205128, test_accuracy: 67.03517587939699 
epoch 17 loss: 0.06824326760186449, train_accuracy: 96.80341880341881, test_accuracy: 66.08040201005025 
epoch 18 loss: 0.10215297088729465, train_accuracy: 97.72649572649573, test_accuracy: 65.62814070351759 
epoch 19 loss: 0.06362596084125366, train_accuracy: 97.72649572649573, test_accuracy: 66.73366834170854 
epoch 20 loss: 0.0785768144583622, train_accuracy: 98.13675213675214, test_accuracy: 65.62814070351759 
epoch 21 loss: 0.06665841538583027, train_accuracy: 99.38461538461539, test_accuracy: 66.23115577889448 
epoch 22 loss: 0.017352471523838748, train_accuracy: 99.82905982905983, test_accuracy: 66.53266331658291 
epoch 23 loss: 0.07557944936585237, train_accuracy: 97.2991452991453, test_accuracy: 67.08542713567839 
epoch 24 loss: 0.04039024534188656, train_accuracy: 99.33333333333333, test_accuracy: 65.62814070351759 
epoch 25 loss: 0.06322960118360264, train_accuracy: 97.6068376068376, test_accuracy: 65.22613065326634 
epoch 26 loss: 0.031959795571794916, train_accuracy: 99.62393162393163, test_accuracy: 66.33165829145729 
epoch 27 loss: 0.016521734565157927, train_accuracy: 99.76068376068376, test_accuracy: 66.4321608040201 
epoch 28 loss: 0.06364052435341482, train_accuracy: 98.52991452991454, test_accuracy: 66.23115577889448 
epoch 29 loss: 0.041397805523553245, train_accuracy: 99.21367521367522, test_accuracy: 65.42713567839196 
epoch 30 loss: 0.036197829437712305, train_accuracy: 98.06837606837607, test_accuracy: 65.0251256281407 
