epoch 1 loss: 0.6944812420679598, train_accuracy: 59.703779366700715, test_accuracy: 55.92964824120603 
epoch 2 loss: 0.6739701093459616, train_accuracy: 65.78140960163432, test_accuracy: 61.256281407035175 
epoch 3 loss: 0.6471452792080081, train_accuracy: 65.21961184882534, test_accuracy: 61.20603015075377 
epoch 4 loss: 0.6126284061037764, train_accuracy: 69.05005107252298, test_accuracy: 61.90954773869347 
epoch 5 loss: 0.576832113825545, train_accuracy: 73.23799795709908, test_accuracy: 65.62814070351759 
epoch 6 loss: 0.5322930879738866, train_accuracy: 77.93667007150154, test_accuracy: 66.98492462311557 
epoch 7 loss: 0.4768041980509855, train_accuracy: 79.82635342185904, test_accuracy: 66.88442211055276 
epoch 8 loss: 0.40941294830064384, train_accuracy: 85.85291113381001, test_accuracy: 67.93969849246231 
epoch 9 loss: 0.3633378836877492, train_accuracy: 89.0194075587334, test_accuracy: 67.28643216080403 
epoch 10 loss: 0.27852959900486224, train_accuracy: 94.0755873340143, test_accuracy: 68.89447236180905 
epoch 11 loss: 0.2028733722257371, train_accuracy: 95.55669050051073, test_accuracy: 68.29145728643216 
epoch 12 loss: 0.16951424421324413, train_accuracy: 96.32277834525026, test_accuracy: 67.63819095477388 
epoch 13 loss: 0.0943412527689064, train_accuracy: 98.51889683350358, test_accuracy: 65.87939698492463 
epoch 14 loss: 0.0641244292610838, train_accuracy: 99.64249233912155, test_accuracy: 67.53768844221105 
epoch 15 loss: 0.08310615220962435, train_accuracy: 96.32277834525026, test_accuracy: 65.678391959799 
epoch 16 loss: 0.11563125345499578, train_accuracy: 98.16138917262512, test_accuracy: 66.78391959798995 
epoch 17 loss: 0.045591305166825045, train_accuracy: 100.0, test_accuracy: 68.84422110552764 
epoch 18 loss: 0.005881106672803776, train_accuracy: 100.0, test_accuracy: 68.24120603015075 
epoch 19 loss: 0.0016698697730376177, train_accuracy: 100.0, test_accuracy: 68.49246231155779 
epoch 20 loss: 0.0008173020353436242, train_accuracy: 100.0, test_accuracy: 68.5929648241206 
epoch 21 loss: 0.00048765979312408994, train_accuracy: 100.0, test_accuracy: 68.64321608040201 
epoch 22 loss: 0.00031407022771993666, train_accuracy: 100.0, test_accuracy: 68.79396984924622 
epoch 23 loss: 0.00021578968825711594, train_accuracy: 100.0, test_accuracy: 68.89447236180905 
epoch 24 loss: 0.0001579582762555479, train_accuracy: 100.0, test_accuracy: 68.74371859296483 
epoch 25 loss: 0.00012042285920081352, train_accuracy: 100.0, test_accuracy: 68.84422110552764 
epoch 26 loss: 9.357081820576704e-05, train_accuracy: 100.0, test_accuracy: 68.5427135678392 
epoch 27 loss: 7.438920525666097e-05, train_accuracy: 100.0, test_accuracy: 68.69346733668341 
epoch 28 loss: 5.9983614378046584e-05, train_accuracy: 100.0, test_accuracy: 68.44221105527639 
epoch 29 loss: 4.868073551501673e-05, train_accuracy: 100.0, test_accuracy: 68.39195979899498 
epoch 30 loss: 3.9667863969656056e-05, train_accuracy: 100.0, test_accuracy: 68.19095477386935 
