epoch 1 loss: 0.6054758395139987, train_accuracy: 78.67058465903334, test_accuracy: 62.562814070351756 
epoch 2 loss: 0.4571803289084782, train_accuracy: 82.25757422231229, test_accuracy: 62.814070351758794 
epoch 3 loss: 0.3823540427454329, train_accuracy: 84.9224845475732, test_accuracy: 65.7286432160804 
epoch 4 loss: 0.32823525056966885, train_accuracy: 88.154828250076, test_accuracy: 64.77386934673366 
epoch 5 loss: 0.27638233799924733, train_accuracy: 90.758942142061, test_accuracy: 64.77386934673366 
epoch 6 loss: 0.23204392017155645, train_accuracy: 91.58982673016516, test_accuracy: 64.62311557788945 
epoch 7 loss: 0.18958053448113052, train_accuracy: 95.34907285439255, test_accuracy: 64.57286432160804 
epoch 8 loss: 0.14494095634546994, train_accuracy: 96.46367413111764, test_accuracy: 63.5678391959799 
epoch 9 loss: 0.1113807063093522, train_accuracy: 96.19009018137602, test_accuracy: 61.85929648241206 
epoch 10 loss: 0.10240988455748615, train_accuracy: 97.66947005775661, test_accuracy: 61.90954773869347 
epoch 11 loss: 0.07571290357021057, train_accuracy: 98.09504509068802, test_accuracy: 63.517587939698494 
epoch 12 loss: 0.06386486210157814, train_accuracy: 98.23690343499848, test_accuracy: 64.12060301507537 
epoch 13 loss: 0.058133746609889465, train_accuracy: 98.00385044077414, test_accuracy: 62.814070351758794 
epoch 14 loss: 0.056877071414971656, train_accuracy: 99.1488499341372, test_accuracy: 63.165829145728644 
epoch 15 loss: 0.0415089810479386, train_accuracy: 99.37177018948222, test_accuracy: 64.42211055276383 
epoch 16 loss: 0.037020046186666634, train_accuracy: 98.81446955111967, test_accuracy: 63.618090452261306 
epoch 17 loss: 0.036317299627294804, train_accuracy: 98.86513324551626, test_accuracy: 63.91959798994975 
epoch 18 loss: 0.020297067059807977, train_accuracy: 98.97659337318878, test_accuracy: 63.165829145728644 
epoch 19 loss: 0.05432667404036818, train_accuracy: 99.65548687810315, test_accuracy: 64.82412060301507 
epoch 20 loss: 0.029099940766371787, train_accuracy: 98.9968588509474, test_accuracy: 64.17085427135679 
epoch 21 loss: 0.029502541536321182, train_accuracy: 99.60482318370656, test_accuracy: 63.41708542713568 
epoch 22 loss: 0.031124236771759052, train_accuracy: 99.1488499341372, test_accuracy: 64.02010050251256 
epoch 23 loss: 0.02017550589748091, train_accuracy: 99.41230114499949, test_accuracy: 64.12060301507537 
epoch 24 loss: 0.033411410874018305, train_accuracy: 99.13871719525788, test_accuracy: 62.8643216080402 
epoch 25 loss: 0.01571016457854569, train_accuracy: 99.30084101732699, test_accuracy: 65.07537688442211 
epoch 26 loss: 0.04537614526935035, train_accuracy: 98.53075286249873, test_accuracy: 64.17085427135679 
epoch 27 loss: 0.023531403903505242, train_accuracy: 99.92907082784477, test_accuracy: 66.03015075376885 
epoch 28 loss: 0.0032891238033476676, train_accuracy: 99.63522140034452, test_accuracy: 65.57788944723617 
epoch 29 loss: 0.014725035933254174, train_accuracy: 98.25716891275712, test_accuracy: 63.46733668341709 
epoch 30 loss: 0.04210863231072898, train_accuracy: 99.69601783362043, test_accuracy: 65.47738693467336 
