epoch 1 loss: 0.6859689111612282, train_accuracy: 63.53421859039837, test_accuracy: 59.14572864321608 
epoch 2 loss: 0.6530134696133283, train_accuracy: 64.3003064351379, test_accuracy: 59.2964824120603 
epoch 3 loss: 0.6285197494589553, train_accuracy: 70.12257405515832, test_accuracy: 64.02010050251256 
epoch 4 loss: 0.5965037029616687, train_accuracy: 72.47191011235955, test_accuracy: 64.22110552763819 
epoch 5 loss: 0.5654450740133014, train_accuracy: 75.22982635342186, test_accuracy: 66.4321608040201 
epoch 6 loss: 0.5342149904796055, train_accuracy: 78.0388151174668, test_accuracy: 67.48743718592965 
epoch 7 loss: 0.4823045247063345, train_accuracy: 79.57099080694586, test_accuracy: 67.8894472361809 
epoch 8 loss: 0.42923475634686803, train_accuracy: 85.95505617977528, test_accuracy: 66.58291457286433 
epoch 9 loss: 0.38075373732313816, train_accuracy: 84.06537282941777, test_accuracy: 65.22613065326634 
epoch 10 loss: 0.3307304112430738, train_accuracy: 91.87946884576098, test_accuracy: 67.38693467336684 
epoch 11 loss: 0.24882883738194192, train_accuracy: 93.2073544433095, test_accuracy: 67.53768844221105 
epoch 12 loss: 0.20525646663974134, train_accuracy: 94.9438202247191, test_accuracy: 66.58291457286433 
epoch 13 loss: 0.13703713699110917, train_accuracy: 96.6802860061287, test_accuracy: 67.28643216080403 
epoch 14 loss: 0.11276251779945225, train_accuracy: 93.41164453524004, test_accuracy: 65.82914572864321 
epoch 15 loss: 0.11277210586989413, train_accuracy: 98.67211440245148, test_accuracy: 68.04020100502512 
epoch 16 loss: 0.08114914059144807, train_accuracy: 98.87640449438203, test_accuracy: 67.63819095477388 
epoch 17 loss: 0.04141604165518086, train_accuracy: 99.48927477017365, test_accuracy: 67.98994974874371 
epoch 18 loss: 0.02569629107863281, train_accuracy: 99.38712972420838, test_accuracy: 67.58793969849246 
epoch 19 loss: 0.017923990337591504, train_accuracy: 98.92747701736465, test_accuracy: 66.03015075376885 
epoch 20 loss: 0.052331866245367564, train_accuracy: 98.46782431052094, test_accuracy: 66.63316582914572 
epoch 21 loss: 0.06381766978599017, train_accuracy: 98.00817160367723, test_accuracy: 67.28643216080403 
epoch 22 loss: 0.06359971305165364, train_accuracy: 98.62104187946885, test_accuracy: 65.77889447236181 
epoch 23 loss: 0.030102754580611315, train_accuracy: 99.89785495403473, test_accuracy: 66.23115577889448 
epoch 24 loss: 0.017667270620556653, train_accuracy: 99.33605720122574, test_accuracy: 66.98492462311557 
epoch 25 loss: 0.011019954567463897, train_accuracy: 99.79570990806945, test_accuracy: 65.97989949748744 
epoch 26 loss: 0.010463580401253184, train_accuracy: 99.2849846782431, test_accuracy: 65.37688442211055 
epoch 27 loss: 0.011370350946185217, train_accuracy: 99.69356486210418, test_accuracy: 67.38693467336684 
epoch 28 loss: 0.06273698913021375, train_accuracy: 99.08069458631256, test_accuracy: 66.88442211055276 
epoch 29 loss: 0.028383014653423296, train_accuracy: 99.1317671092952, test_accuracy: 67.28643216080403 
epoch 30 loss: 0.013184402622662636, train_accuracy: 100.0, test_accuracy: 67.48743718592965 
