epoch 1 loss: 0.6154810398334434, train_accuracy: 77.73837268213597, test_accuracy: 61.30653266331658 
epoch 2 loss: 0.4592917956381674, train_accuracy: 81.85226466713952, test_accuracy: 65.37688442211055 
epoch 3 loss: 0.3711226803178971, train_accuracy: 86.10801499645355, test_accuracy: 65.52763819095478 
epoch 4 loss: 0.313799584412623, train_accuracy: 88.96544736042152, test_accuracy: 63.5678391959799 
epoch 5 loss: 0.25834305260918644, train_accuracy: 92.38018036275206, test_accuracy: 65.97989949748744 
epoch 6 loss: 0.2143363694732006, train_accuracy: 94.32566622758131, test_accuracy: 64.02010050251256 
epoch 7 loss: 0.16413844534316616, train_accuracy: 96.67646164758334, test_accuracy: 64.47236180904522 
epoch 8 loss: 0.13528750570460793, train_accuracy: 97.07163846387678, test_accuracy: 63.91959798994975 
epoch 9 loss: 0.10101222643734291, train_accuracy: 93.08947208430439, test_accuracy: 60.85427135678392 
epoch 10 loss: 0.08545173425957946, train_accuracy: 98.46995642922282, test_accuracy: 62.61306532663317 
epoch 11 loss: 0.06412972665286641, train_accuracy: 98.23690343499848, test_accuracy: 63.46733668341709 
epoch 12 loss: 0.06098111252711106, train_accuracy: 99.22991184517176, test_accuracy: 63.21608040201005 
epoch 13 loss: 0.0460509755898397, train_accuracy: 98.14570878508461, test_accuracy: 62.26130653266332 
epoch 14 loss: 0.03651466433101032, train_accuracy: 99.1995136285338, test_accuracy: 64.22110552763819 
epoch 15 loss: 0.04398310718086297, train_accuracy: 98.74354037896444, test_accuracy: 61.90954773869347 
epoch 16 loss: 0.03589060490277018, train_accuracy: 98.60168203465396, test_accuracy: 62.11055276381909 
epoch 17 loss: 0.036036180037513535, train_accuracy: 99.30084101732699, test_accuracy: 61.75879396984924 
epoch 18 loss: 0.04004519339334203, train_accuracy: 99.08805350086128, test_accuracy: 62.21105527638191 
epoch 19 loss: 0.018075427622401777, train_accuracy: 99.00699158982673, test_accuracy: 62.06030150753769 
epoch 20 loss: 0.03300038674586559, train_accuracy: 99.04752254534401, test_accuracy: 61.608040201005025 
epoch 21 loss: 0.026083526519450666, train_accuracy: 98.9360624176715, test_accuracy: 62.311557788944725 
epoch 22 loss: 0.02428773302686549, train_accuracy: 98.8853987232749, test_accuracy: 61.20603015075377 
epoch 23 loss: 0.027861566774642896, train_accuracy: 99.48323031715472, test_accuracy: 62.01005025125628 
epoch 24 loss: 0.02060949469125993, train_accuracy: 99.43256662275813, test_accuracy: 61.55778894472362 
epoch 25 loss: 0.02971422662727189, train_accuracy: 99.63522140034452, test_accuracy: 62.914572864321606 
epoch 26 loss: 0.008827296107763406, train_accuracy: 99.66561961698247, test_accuracy: 64.72361809045226 
epoch 27 loss: 0.03578558231653155, train_accuracy: 98.38889451818827, test_accuracy: 62.61306532663317 
epoch 28 loss: 0.02410483911198348, train_accuracy: 99.85814165568954, test_accuracy: 63.768844221105525 
epoch 29 loss: 0.020697373593557344, train_accuracy: 98.92592967879217, test_accuracy: 63.21608040201005 
epoch 30 loss: 0.016002467722484454, train_accuracy: 99.65548687810315, test_accuracy: 62.562814070351756 
