epoch 1 loss: 0.5087697596653648, train_accuracy: 89.32574870336289, test_accuracy: 60.0 
epoch 2 loss: 0.29334590128034255, train_accuracy: 91.76844570854944, test_accuracy: 61.85929648241206 
epoch 3 loss: 0.21433789304840725, train_accuracy: 93.9267190898444, test_accuracy: 61.90954773869347 
epoch 4 loss: 0.17280458923690895, train_accuracy: 95.3990296135185, test_accuracy: 63.266331658291456 
epoch 5 loss: 0.13159785985971573, train_accuracy: 96.98845574703029, test_accuracy: 64.07035175879398 
epoch 6 loss: 0.10210768431136977, train_accuracy: 98.24326585243433, test_accuracy: 63.5678391959799 
epoch 7 loss: 0.07403623691548197, train_accuracy: 97.27287937092187, test_accuracy: 61.85929648241206 
epoch 8 loss: 0.06402990414919082, train_accuracy: 98.62807428475824, test_accuracy: 66.03015075376885 
epoch 9 loss: 0.03964460157730109, train_accuracy: 99.56499916345993, test_accuracy: 65.32663316582915 
epoch 10 loss: 0.039239764805250675, train_accuracy: 99.41442195081144, test_accuracy: 63.869346733668344 
epoch 11 loss: 0.04290432863760534, train_accuracy: 99.66538397189225, test_accuracy: 63.06532663316583 
epoch 12 loss: 0.015671793547497686, train_accuracy: 99.83269198594613, test_accuracy: 63.71859296482412 
epoch 13 loss: 0.023054095851461835, train_accuracy: 99.53153756064916, test_accuracy: 62.914572864321606 
epoch 14 loss: 0.028477969412002938, train_accuracy: 99.16345992973064, test_accuracy: 63.5678391959799 
epoch 15 loss: 0.018151892597990906, train_accuracy: 99.76576878032458, test_accuracy: 64.2713567839196 
epoch 16 loss: 0.02288423010535565, train_accuracy: 99.26384473816296, test_accuracy: 62.8643216080402 
epoch 17 loss: 0.016891395522161415, train_accuracy: 99.7323071775138, test_accuracy: 64.07035175879398 
epoch 18 loss: 0.009136637128393852, train_accuracy: 99.39769114940606, test_accuracy: 62.914572864321606 
epoch 19 loss: 0.03461482204021685, train_accuracy: 99.58172996486532, test_accuracy: 64.57286432160804 
epoch 20 loss: 0.017233891508956056, train_accuracy: 99.31403714237912, test_accuracy: 62.814070351758794 
epoch 21 loss: 0.01835331781325276, train_accuracy: 99.66538397189225, test_accuracy: 63.165829145728644 
epoch 22 loss: 0.019501195993313823, train_accuracy: 99.76576878032458, test_accuracy: 62.663316582914575 
epoch 23 loss: 0.010293251640812127, train_accuracy: 99.83269198594613, test_accuracy: 62.06030150753769 
epoch 24 loss: 0.005679050058545886, train_accuracy: 100.0, test_accuracy: 63.36683417085427 
epoch 25 loss: 0.02839875429309107, train_accuracy: 99.71557637610842, test_accuracy: 63.41708542713568 
epoch 26 loss: 0.005775081680719898, train_accuracy: 99.98326919859461, test_accuracy: 62.1608040201005 
epoch 27 loss: 0.01814180419071903, train_accuracy: 99.91634599297306, test_accuracy: 64.52261306532664 
epoch 28 loss: 0.0034362622492529267, train_accuracy: 99.98326919859461, test_accuracy: 64.12060301507537 
epoch 29 loss: 0.0002476217510486534, train_accuracy: 100.0, test_accuracy: 64.9748743718593 
epoch 30 loss: 7.547839252284336e-05, train_accuracy: 100.0, test_accuracy: 64.72361809045226 
