epoch 1 loss: 0.5100318879686471, train_accuracy: 90.14555797222687, test_accuracy: 60.85427135678392 
epoch 2 loss: 0.28350368012552674, train_accuracy: 92.63844738162958, test_accuracy: 63.36683417085427 
epoch 3 loss: 0.20528732965946397, train_accuracy: 95.21499079805923, test_accuracy: 63.165829145728644 
epoch 4 loss: 0.15993695978361827, train_accuracy: 95.33210640789694, test_accuracy: 63.31658291457286 
epoch 5 loss: 0.11215120128645596, train_accuracy: 97.69114940605655, test_accuracy: 63.11557788944724 
epoch 6 loss: 0.07991445007193584, train_accuracy: 98.2934582566505, test_accuracy: 64.2713567839196 
epoch 7 loss: 0.06446418275100406, train_accuracy: 98.59461268194747, test_accuracy: 62.814070351758794 
epoch 8 loss: 0.04364594732955126, train_accuracy: 99.18019073113602, test_accuracy: 62.61306532663317 
epoch 9 loss: 0.05707097956863521, train_accuracy: 99.38096034800067, test_accuracy: 62.61306532663317 
epoch 10 loss: 0.026971477647906715, train_accuracy: 99.24711393675757, test_accuracy: 62.01005025125628 
epoch 11 loss: 0.029664694905401474, train_accuracy: 98.2934582566505, test_accuracy: 63.36683417085427 
epoch 12 loss: 0.030788175308789564, train_accuracy: 97.47364898778652, test_accuracy: 59.39698492462311 
epoch 13 loss: 0.035214866699579246, train_accuracy: 97.77480341308349, test_accuracy: 60.50251256281407 
epoch 14 loss: 0.025707396204125814, train_accuracy: 99.4646143550276, test_accuracy: 63.41708542713568 
epoch 15 loss: 0.017766346625944073, train_accuracy: 99.56499916345993, test_accuracy: 61.4070351758794 
epoch 16 loss: 0.006909417179744451, train_accuracy: 98.82884390162289, test_accuracy: 62.41206030150754 
epoch 17 loss: 0.038077959061009574, train_accuracy: 99.7323071775138, test_accuracy: 63.517587939698494 
epoch 18 loss: 0.00862001213582679, train_accuracy: 99.61519156767609, test_accuracy: 62.41206030150754 
epoch 19 loss: 0.02311392019966971, train_accuracy: 99.56499916345993, test_accuracy: 62.36180904522613 
epoch 20 loss: 0.013433210691890655, train_accuracy: 99.91634599297306, test_accuracy: 63.5678391959799 
epoch 21 loss: 0.011429897951724385, train_accuracy: 99.39769114940606, test_accuracy: 62.462311557788944 
epoch 22 loss: 0.01285229990772133, train_accuracy: 99.78249958172997, test_accuracy: 63.41708542713568 
epoch 23 loss: 0.0059196912669595, train_accuracy: 99.76576878032458, test_accuracy: 64.07035175879398 
epoch 24 loss: 0.01369454296065177, train_accuracy: 99.18019073113602, test_accuracy: 61.608040201005025 
epoch 25 loss: 0.01361335575952778, train_accuracy: 99.98326919859461, test_accuracy: 63.11557788944724 
epoch 26 loss: 0.0008256723373098267, train_accuracy: 99.98326919859461, test_accuracy: 63.41708542713568 
epoch 27 loss: 0.020524887506941966, train_accuracy: 98.84557470302828, test_accuracy: 61.75879396984924 
epoch 28 loss: 0.01849013907276671, train_accuracy: 99.43115275221683, test_accuracy: 63.165829145728644 
epoch 29 loss: 0.014974071325132567, train_accuracy: 99.81596118454074, test_accuracy: 63.165829145728644 
epoch 30 loss: 0.0086399826864946, train_accuracy: 99.76576878032458, test_accuracy: 63.41708542713568 
